/*
 Copyright (C) 1991-2016 Altera Corporation. All rights reserved.
 Your use of Altera Corporation's design tools, logic functions 
 and other software and tools, and its AMPP partner logic 
 functions, and any output files from any of the foregoing 
 (including device programming or simulation files), and any 
 associated documentation or information are expressly subject 
 to the terms and conditions of the Altera Program License 
 Subscription Agreement, the Altera Quartus Prime License Agreement,
 the Altera MegaCore Function License Agreement, or other 
 applicable license agreement, including, without limitation, 
 that your use is for the sole purpose of programming logic 
 devices manufactured by Altera and sold by Altera or its 
 authorized distributors.  Please refer to the applicable 
 agreement for further details.
*/
MODEL
/*MODEL HEADER*/
/*
 This file contains Slow Corner delays for the design using part EP4CGX15BF14C6
 with speed grade 6, core voltage 1.2V, and temperature 0 Celsius

*/
MODEL_VERSION "1.0";
DESIGN "nios";
DATE "04/30/2016 16:55:32";
PROGRAM "Quartus Prime";



INPUT altera_reserved_tdi;
INPUT altera_reserved_tck;
INPUT altera_reserved_tms;
INPUT clk25b;
INPUT auto_stp_external_clock_0;
OUTPUT led[0];
OUTPUT led[1];
OUTPUT altera_reserved_tdo;

/*Arc definitions start here*/
pos_altera_reserved_tdi__altera_reserved_tck__setup:		SETUP (POSEDGE) altera_reserved_tdi altera_reserved_tck ;
pos_altera_reserved_tms__altera_reserved_tck__setup:		SETUP (POSEDGE) altera_reserved_tms altera_reserved_tck ;
pos_altera_reserved_tdi__altera_reserved_tck__hold:		HOLD (POSEDGE) altera_reserved_tdi altera_reserved_tck ;
pos_altera_reserved_tms__altera_reserved_tck__hold:		HOLD (POSEDGE) altera_reserved_tms altera_reserved_tck ;
pos_altera_reserved_tck__altera_reserved_tdo__delay:		DELAY (POSEDGE) altera_reserved_tck altera_reserved_tdo ;

ENDMODEL
