:0400000000000000FC
:0400010000000000FB
:0400020000000000FA
:0400030000000000F9
:0400040000000000F8
:0400050000000000F7
:0400060000000000F6
:0400070000000000F5
:0400080000000000F4
:0400090000000000F3
:04000A0000000000F2
:04000B0000000000F1
:04000C0000000000F0
:04000D0000000000EF
:04000E0000000000EE
:04000F0000000000ED
:0400100000000000EC
:0400110000000000EB
:0400120000000000EA
:0400130000000000E9
:0400140000000000E8
:0400150000000000E7
:0400160000000000E6
:0400170000000000E5
:0400180000000000E4
:0400190000000000E3
:04001A0000000000E2
:04001B0000000000E1
:04001C0000000000E0
:04001D0000000000DF
:04001E0000000000DE
:04001F0000000000DD
:0400200000000000DC
:0400210000000000DB
:0400220000000000DA
:0400230000000000D9
:0400240000000000D8
:0400250000000000D7
:0400260000000000D6
:0400270000000000D5
:0400280000000000D4
:0400290000000000D3
:04002A0000000000D2
:04002B0000000000D1
:04002C0000000000D0
:04002D0000000000CF
:04002E0000000000CE
:04002F0000000000CD
:0400300000000000CC
:0400310000000000CB
:0400320000000000CA
:0400330000000000C9
:0400340000000000C8
:0400350000000000C7
:0400360000000000C6
:0400370000000000C5
:0400380000000000C4
:0400390000000000C3
:04003A0000000000C2
:04003B0000000000C1
:04003C0000000000C0
:04003D0000000000BF
:04003E0000000000BE
:04003F0000000000BD
:0400400000000000BC
:0400410000000000BB
:0400420000000000BA
:0400430000000000B9
:0400440000000000B8
:0400450000000000B7
:0400460000000000B6
:0400470000000000B5
:0400480000000000B4
:0400490000000000B3
:04004A0000000000B2
:04004B0000000000B1
:04004C0000000000B0
:04004D0000000000AF
:04004E0000000000AE
:04004F0000000000AD
:0400500000000000AC
:0400510000000000AB
:0400520000000000AA
:0400530000000000A9
:0400540000000000A8
:0400550000000000A7
:0400560000000000A6
:0400570000000000A5
:0400580000000000A4
:0400590000000000A3
:04005A0000000000A2
:04005B0000000000A1
:04005C0000000000A0
:04005D00000000009F
:04005E00000000009E
:04005F00000000009D
:04006000000000009C
:04006100000000009B
:04006200000000009A
:040063000000000099
:040064000000000098
:040065000000000097
:040066000000000096
:040067000000000095
:040068000000000094
:040069000000000093
:04006A000000000092
:04006B000000000091
:04006C000000000090
:04006D00000000008F
:04006E00000000008E
:04006F00000000008D
:04007000000000008C
:04007100000000008B
:04007200000000008A
:040073000000000089
:040074000000000088
:040075000000000087
:040076000000000086
:040077000000000085
:040078000000000084
:040079000000000083
:04007A000000000082
:04007B000000000081
:04007C000000000080
:04007D00000000007F
:04007E00000000007E
:04007F00000000007D
:04008000000000007C
:04008100000000007B
:04008200000000007A
:040083000000000079
:040084000000000078
:040085000000000077
:040086000000000076
:040087000000000075
:040088000000000074
:040089000000000073
:04008A000000000072
:04008B000000000071
:04008C000000000070
:04008D00000000006F
:04008E00000000006E
:04008F00000000006D
:04009000000000006C
:04009100000000006B
:04009200000000006A
:040093000000000069
:040094000000000068
:040095000000000067
:040096000000000066
:040097000000000065
:040098000000000064
:040099000000000063
:04009A000000000062
:04009B000000000061
:04009C000000000060
:04009D00000000005F
:04009E00000000005E
:04009F00000000005D
:0400A000000000005C
:0400A100000000005B
:0400A200000000005A
:0400A3000000000059
:0400A4000000000058
:0400A5000000000057
:0400A6000000000056
:0400A7000000000055
:0400A8000000000054
:0400A9000000000053
:0400AA000000000052
:0400AB000000000051
:0400AC000000000050
:0400AD00000000004F
:0400AE00000000004E
:0400AF00000000004D
:0400B000000000004C
:0400B100000000004B
:0400B200000000004A
:0400B3000000000049
:0400B4000000000048
:0400B5000000000047
:0400B6000000000046
:0400B7000000000045
:0400B8000000000044
:0400B9000000000043
:0400BA000000000042
:0400BB000000000041
:0400BC000000000040
:0400BD00000000003F
:0400BE00000000003E
:0400BF00000000003D
:0400C000000000003C
:0400C100000000003B
:0400C200000000003A
:0400C3000000000039
:0400C4000000000038
:0400C5000000000037
:0400C6000000000036
:0400C7000000000035
:0400C8000000000034
:0400C9000000000033
:0400CA000000000032
:0400CB000000000031
:0400CC000000000030
:0400CD00000000002F
:0400CE00000000002E
:0400CF00000000002D
:0400D000000000002C
:0400D100000000002B
:0400D200000000002A
:0400D3000000000029
:0400D4000000000028
:0400D5000000000027
:0400D6000000000026
:0400D7000000000025
:0400D8000000000024
:0400D9000000000023
:0400DA000000000022
:0400DB000000000021
:0400DC000000000020
:0400DD00000000001F
:0400DE00000000001E
:0400DF00000000001D
:0400E000000000001C
:0400E100000000001B
:0400E200000000001A
:0400E3000000000019
:0400E4000000000018
:0400E5000000000017
:0400E6000000000016
:0400E7000000000015
:0400E8000000000014
:0400E9000000000013
:0400EA000000000012
:0400EB000000000011
:0400EC000000000010
:0400ED00000000000F
:0400EE00000000000E
:0400EF00000000000D
:0400F000000000000C
:0400F100000000000B
:0400F200000000000A
:0400F3000000000009
:0400F4000000000008
:0400F5000000000007
:0400F6000000000006
:0400F7000000000005
:0400F8000000000004
:0400F9000000000003
:0400FA000000000002
:0400FB000000000001
:0400FC000000000000
:0400FD0000000000FF
:0400FE0000000000FE
:0400FF0000000000FD
:0401000000000000FB
:0401010000000000FA
:0401020000000000F9
:0401030000000000F8
:0401040000000000F7
:0401050000000000F6
:0401060000000000F5
:0401070000000000F4
:0401080000000000F3
:0401090000000000F2
:04010A0000000000F1
:04010B0000000000F0
:04010C0000000000EF
:04010D0000000000EE
:04010E0000000000ED
:04010F0000000000EC
:0401100000000000EB
:0401110000000000EA
:0401120000000000E9
:0401130000000000E8
:0401140000000000E7
:0401150000000000E6
:0401160000000000E5
:0401170000000000E4
:0401180000000000E3
:0401190000000000E2
:04011A0000000000E1
:04011B0000000000E0
:04011C0000000000DF
:04011D0000000000DE
:04011E0000000000DD
:04011F0000000000DC
:0401200000000000DB
:0401210000000000DA
:0401220000000000D9
:0401230000000000D8
:0401240000000000D7
:0401250000000000D6
:0401260000000000D5
:0401270000000000D4
:0401280000000000D3
:0401290000000000D2
:04012A0000000000D1
:04012B0000000000D0
:04012C0000000000CF
:04012D0000000000CE
:04012E0000000000CD
:04012F0000000000CC
:0401300000000000CB
:0401310000000000CA
:0401320000000000C9
:0401330000000000C8
:0401340000000000C7
:0401350000000000C6
:0401360000000000C5
:0401370000000000C4
:0401380000000000C3
:0401390000000000C2
:04013A0000000000C1
:04013B0000000000C0
:04013C0000000000BF
:04013D0000000000BE
:04013E0000000000BD
:04013F0000000000BC
:0401400000000000BB
:0401410000000000BA
:0401420000000000B9
:0401430000000000B8
:0401440000000000B7
:0401450000000000B6
:0401460000000000B5
:0401470000000000B4
:0401480000000000B3
:0401490000000000B2
:04014A0000000000B1
:04014B0000000000B0
:04014C0000000000AF
:04014D0000000000AE
:04014E0000000000AD
:04014F0000000000AC
:0401500000000000AB
:0401510000000000AA
:0401520000000000A9
:0401530000000000A8
:0401540000000000A7
:0401550000000000A6
:0401560000000000A5
:0401570000000000A4
:0401580000000000A3
:0401590000000000A2
:04015A0000000000A1
:04015B0000000000A0
:04015C00000000009F
:04015D00000000009E
:04015E00000000009D
:04015F00000000009C
:04016000000000009B
:04016100000000009A
:040162000000000099
:040163000000000098
:040164000000000097
:040165000000000096
:040166000000000095
:040167000000000094
:040168000000000093
:040169000000000092
:04016A000000000091
:04016B000000000090
:04016C00000000008F
:04016D00000000008E
:04016E00000000008D
:04016F00000000008C
:04017000000000008B
:04017100000000008A
:040172000000000089
:040173000000000088
:040174000000000087
:040175000000000086
:040176000000000085
:040177000000000084
:040178000000000083
:040179000000000082
:04017A000000000081
:04017B000000000080
:04017C00000000007F
:04017D00000000007E
:04017E00000000007D
:04017F00000000007C
:04018000000000007B
:04018100000000007A
:040182000000000079
:040183000000000078
:040184000000000077
:040185000000000076
:040186000000000075
:040187000000000074
:040188000000000073
:040189000000000072
:04018A000000000071
:04018B000000000070
:04018C00000000006F
:04018D00000000006E
:04018E00000000006D
:04018F00000000006C
:04019000000000006B
:04019100000000006A
:040192000000000069
:040193000000000068
:040194000000000067
:040195000000000066
:040196000000000065
:040197000000000064
:040198000000000063
:040199000000000062
:04019A000000000061
:04019B000000000060
:04019C00000000005F
:04019D00000000005E
:04019E00000000005D
:04019F00000000005C
:0401A000000000005B
:0401A100000000005A
:0401A2000000000059
:0401A3000000000058
:0401A4000000000057
:0401A5000000000056
:0401A6000000000055
:0401A7000000000054
:0401A8000000000053
:0401A9000000000052
:0401AA000000000051
:0401AB000000000050
:0401AC00000000004F
:0401AD00000000004E
:0401AE00000000004D
:0401AF00000000004C
:0401B000000000004B
:0401B100000000004A
:0401B2000000000049
:0401B3000000000048
:0401B4000000000047
:0401B5000000000046
:0401B6000000000045
:0401B7000000000044
:0401B8000000000043
:0401B9000000000042
:0401BA000000000041
:0401BB000000000040
:0401BC00000000003F
:0401BD00000000003E
:0401BE00000000003D
:0401BF00000000003C
:0401C000000000003B
:0401C100000000003A
:0401C2000000000039
:0401C3000000000038
:0401C4000000000037
:0401C5000000000036
:0401C6000000000035
:0401C7000000000034
:0401C8000000000033
:0401C9000000000032
:0401CA000000000031
:0401CB000000000030
:0401CC00000000002F
:0401CD00000000002E
:0401CE00000000002D
:0401CF00000000002C
:0401D000000000002B
:0401D100000000002A
:0401D2000000000029
:0401D3000000000028
:0401D4000000000027
:0401D5000000000026
:0401D6000000000025
:0401D7000000000024
:0401D8000000000023
:0401D9000000000022
:0401DA000000000021
:0401DB000000000020
:0401DC00000000001F
:0401DD00000000001E
:0401DE00000000001D
:0401DF00000000001C
:0401E000000000001B
:0401E100000000001A
:0401E2000000000019
:0401E3000000000018
:0401E4000000000017
:0401E5000000000016
:0401E6000000000015
:0401E7000000000014
:0401E8000000000013
:0401E9000000000012
:0401EA000000000011
:0401EB000000000010
:0401EC00000000000F
:0401ED00000000000E
:0401EE00000000000D
:0401EF00000000000C
:0401F000000000000B
:0401F100000000000A
:0401F2000000000009
:0401F3000000000008
:0401F4000000000007
:0401F5000000000006
:0401F6000000000005
:0401F7000000000004
:0401F8000000000003
:0401F9000000000002
:0401FA000000000001
:0401FB000000000000
:0401FC0000000000FF
:0401FD0000000000FE
:0401FE0000000000FD
:0401FF0000000000FC
:00000001ff
